\relax 
\providecommand*\new@tpo@label[2]{}
\catcode `"\active 
\select@language{ngerman}
\@writefile{toc}{\select@language{ngerman}}
\@writefile{lof}{\select@language{ngerman}}
\@writefile{lot}{\select@language{ngerman}}
\@writefile{toc}{\contentsline {section}{\numberline {1}Gew\IeC {\"a}hlte Problemstellung}{1}}
\@writefile{toc}{\contentsline {subsection}{\numberline {1.1}Ziel}{1}}
\@writefile{toc}{\contentsline {subsection}{\numberline {1.2}Eingabe}{1}}
\@writefile{toc}{\contentsline {subsection}{\numberline {1.3}Ausgabe}{1}}
\@writefile{toc}{\contentsline {subsection}{\numberline {1.4}Voraussetzungen und Bedingungen}{1}}
\@writefile{toc}{\contentsline {subsection}{\numberline {1.5}Methodik}{2}}
\@writefile{toc}{\contentsline {subsection}{\numberline {1.6}Evaluierungsfragen}{3}}
\@writefile{toc}{\contentsline {subsection}{\numberline {1.7}Zeitplan}{3}}
\@writefile{toc}{\contentsline {section}{\numberline {2}Arbeitsteilung}{3}}
\citation{lowe2004}
\citation{Otsu}
\@writefile{toc}{\contentsline {section}{\numberline {3}Methodik}{5}}
\@writefile{toc}{\contentsline {subsection}{\numberline {3.1}Threshold nach Otsu}{5}}
\citation{TemplateMatching}
\citation{Hough}
\@writefile{toc}{\contentsline {subsection}{\numberline {3.2}Template Matching}{6}}
\@writefile{toc}{\contentsline {subsection}{\numberline {3.3}Sobel Filter}{6}}
\@writefile{toc}{\contentsline {subsection}{\numberline {3.4}Hough-Transformation}{6}}
\citation{Erosion}
\@writefile{toc}{\contentsline {subsection}{\numberline {3.5}Morphologische Operationen \discretionary {-}{}{} Erosion \cite  {Erosion}}{7}}
\@writefile{toc}{\contentsline {subsection}{\numberline {3.6}Connected Component Labeling}{7}}
\@writefile{toc}{\contentsline {section}{\numberline {4}Implementierung}{8}}
\@writefile{toc}{\contentsline {subsection}{\numberline {4.1}Implementierung Hough Transformation}{8}}
\@writefile{toc}{\contentsline {subsection}{\numberline {4.2}Template Matching}{9}}
\bibstyle{plain}
\bibdata{edbv_lit}
\bibcite{lowe2004}{1}
\bibcite{Otsu}{2}
\bibcite{TemplateMatching}{3}
\bibcite{Hough}{4}
\@writefile{toc}{\contentsline {section}{\numberline {5}Evaluierung}{10}}
\@writefile{toc}{\contentsline {section}{\numberline {6}Schlusswort}{10}}
